<?xml version="1.0" standalone="no"?>
<!DOCTYPE svg PUBLIC "-//W3C//DTD SVG 1.1//EN" "http://www.w3.org/Graphics/SVG/1.1/DTD/svg11.dtd">
<svg xmlns="http://www.w3.org/2000/svg">
<metadata>Generated by Fontastic.me</metadata>
<defs>
<font id="artisan-site" horiz-adv-x="512">
<font-face font-family="artisan-site" units-per-em="512" ascent="480" descent="-32"/>
<missing-glyph horiz-adv-x="512" />

<glyph unicode="&#97;" d="M352 421l0 91-192 0 0-91c-57-33-96-94-96-165 0-71 39-132 96-165l0-91 192 0 0 91c57 33 96 94 96 165 0 71-39 132-96 165z m-160 59l128 0 0-44c-20 7-41 12-64 12-23 0-44-5-64-12z m128-448l-128 0 0 44c20-7 41-12 64-12 23 0 44 5 64 12z m-64 64c-88 0-160 72-160 160 0 88 72 160 160 160 88 0 160-72 160-160 0-88-72-160-160-160z m80 160l-80 0 0 112c0 9-7 16-16 16-9 0-16-7-16-16l0-128c0-9 7-16 16-16l96 0c9 0 16 7 16 16 0 9-7 16-16 16z"/>
<glyph unicode="&#98;" d="M256 512c-141 0-256-115-256-256 0-141 115-256 256-256 141 0 256 115 256 256 0 141-115 256-256 256z m64-42c72-22 128-78 150-150l-104 0c-11 19-27 35-46 46z m32-214c0-53-43-96-96-96-53 0-96 43-96 96 0 53 43 96 96 96 53 0 96-43 96-96z m-128 221c11 1 21 3 32 3 11 0 21-2 32-3l0-98c-10 3-21 5-32 5-11 0-22-2-32-5z m-32-7l0-104c-19-11-35-27-47-46l-103 0c22 72 78 128 150 150z m-160-214c0 11 1 22 3 32l97 0c-2-10-4-21-4-32 0-11 2-22 4-32l-97 0c-2 10-3 21-3 32z m160-214c-72 22-128 78-150 150l103 0c12-19 28-35 47-46z m96-7c-11-1-21-3-32-3-11 0-21 2-32 3l0 98c10-3 21-5 32-5 11 0 22 2 32 5z m32 7l0 104c19 11 35 27 46 46l104 0c-22-72-78-128-150-150z m60 182c2 10 4 21 4 32 0 11-2 22-4 32l97 0c2-10 3-21 3-32 0-11-1-22-3-32z"/>
<glyph unicode="&#99;" d="M188 322c0 11 10 18 22 18 18 0 31-13 31-13l11 22c0 0-12 13-35 15l0 20-17 0 0-20c-22-4-38-21-38-42 0-46 68-43 68-68 0-13-10-18-21-18-20 0-35 15-35 15l-14-20c0 0 14-17 40-20l0-19 17 0 0 19c25 3 39 22 39 43 0 47-68 43-68 68z m228-162l0 256c0 18-14 32-32 32l-352 0c-18 0-32-14-32-32l0-256c0-18 14-32 32-32l352 0c18 0 32 14 32 32z m-48 0l-320 0c-9 0-16 7-16 16l0 224c0 9 7 16 16 16l320 0c9 0 16-7 16-16l0-224c0-9-7-16-16-16z m112 192l-32 0 0-32 16 0c9 0 16-7 16-16l0-224c0-9-7-16-16-16l-320 0c-9 0-16 7-16 16l0 16-32 0 0-32c0-18 14-32 32-32l352 0c18 0 32 14 32 32l0 256c0 18-14 32-32 32z"/>
</font></defs></svg>
